<svg width="140" height="140" viewBox="0 0 140 140" fill="none" xmlns="http://www.w3.org/2000/svg">
<rect width="140" height="140" fill="#EAEAEA"/>
<path d="M49.2825 63.032C47.2878 63.032 45.5938 62.768 44.2005 62.24C42.8218 61.712 41.7732 60.9493 41.0545 59.952C40.3358 58.94 39.9765 57.708 39.9765 56.256C39.9765 54.804 40.3358 53.5793 41.0545 52.582C41.7732 51.57 42.8218 50.8 44.2005 50.272C45.5938 49.744 47.2878 49.48 49.2825 49.48C49.3118 49.48 49.3925 49.48 49.5245 49.48C49.6712 49.48 49.8105 49.48 49.9425 49.48C50.0892 49.48 50.1698 49.48 50.1845 49.48C52.1645 49.48 53.8365 49.744 55.2005 50.272C56.5792 50.8 57.6205 51.57 58.3245 52.582C59.0285 53.594 59.3805 54.8187 59.3805 56.256C59.3805 57.6787 59.0285 58.9033 58.3245 59.93C57.6352 60.942 56.6158 61.712 55.2665 62.24C53.9318 62.768 52.2965 63.032 50.3605 63.032C50.3165 63.032 50.2138 63.032 50.0525 63.032C49.8912 63.032 49.7298 63.032 49.5685 63.032C49.4218 63.032 49.3265 63.032 49.2825 63.032ZM49.6125 60.282C49.6565 60.282 49.7152 60.282 49.7885 60.282C49.8618 60.282 49.9132 60.282 49.9425 60.282C51.2918 60.282 52.4065 60.1353 53.2865 59.842C54.1812 59.534 54.8485 59.0867 55.2885 58.5C55.7285 57.8987 55.9485 57.1433 55.9485 56.234C55.9485 55.3247 55.7212 54.5767 55.2665 53.99C54.8118 53.4033 54.1445 52.9707 53.2645 52.692C52.3992 52.3987 51.3065 52.252 49.9865 52.252C49.9572 52.252 49.8985 52.252 49.8105 52.252C49.7372 52.252 49.6712 52.252 49.6125 52.252C48.2192 52.252 47.0678 52.3913 46.1585 52.67C45.2492 52.9487 44.5672 53.3887 44.1125 53.99C43.6578 54.5767 43.4305 55.332 43.4305 56.256C43.4305 57.18 43.6725 57.9427 44.1565 58.544C44.6405 59.1307 45.3372 59.5707 46.2465 59.864C47.1705 60.1427 48.2925 60.282 49.6125 60.282ZM48.0505 64.682V47.94H51.3285V64.682H48.0505ZM67.3268 64.176C66.0655 64.176 64.9435 63.912 63.9608 63.384C62.9928 62.856 62.2228 62.1373 61.6508 61.228C61.0935 60.304 60.8148 59.2553 60.8148 58.082C60.8148 56.894 61.0935 55.8453 61.6508 54.936C62.2228 54.012 62.9928 53.2933 63.9608 52.78C64.9435 52.252 66.0655 51.988 67.3268 51.988C68.5735 51.988 69.6881 52.252 70.6708 52.78C71.6535 53.2933 72.4235 54.0047 72.9808 54.914C73.5381 55.8233 73.8168 56.8793 73.8168 58.082C73.8168 59.2553 73.5381 60.304 72.9808 61.228C72.4235 62.1373 71.6535 62.856 70.6708 63.384C69.6881 63.912 68.5735 64.176 67.3268 64.176ZM67.3268 61.36C67.8988 61.36 68.4121 61.228 68.8668 60.964C69.3215 60.7 69.6808 60.326 69.9448 59.842C70.2088 59.3433 70.3408 58.7567 70.3408 58.082C70.3408 57.3927 70.2088 56.806 69.9448 56.322C69.6808 55.838 69.3215 55.464 68.8668 55.2C68.4121 54.936 67.8988 54.804 67.3268 54.804C66.7548 54.804 66.2415 54.936 65.7868 55.2C65.3321 55.464 64.9655 55.838 64.6868 56.322C64.4228 56.806 64.2908 57.3927 64.2908 58.082C64.2908 58.7567 64.4228 59.3433 64.6868 59.842C64.9655 60.326 65.3321 60.7 65.7868 60.964C66.2415 61.228 66.7548 61.36 67.3268 61.36ZM78.2777 64V54.188L79.0477 54.98H74.2737V52.164H85.6917V54.98H80.9177L81.6877 54.188V64H78.2777ZM92.571 64.176C91.3096 64.176 90.1876 63.912 89.205 63.384C88.237 62.856 87.467 62.1373 86.895 61.228C86.3376 60.304 86.059 59.2553 86.059 58.082C86.059 56.894 86.3376 55.8453 86.895 54.936C87.467 54.012 88.237 53.2933 89.205 52.78C90.1876 52.252 91.3096 51.988 92.571 51.988C93.8176 51.988 94.9323 52.252 95.915 52.78C96.8976 53.2933 97.6676 54.0047 98.225 54.914C98.7823 55.8233 99.061 56.8793 99.061 58.082C99.061 59.2553 98.7823 60.304 98.225 61.228C97.6676 62.1373 96.8976 62.856 95.915 63.384C94.9323 63.912 93.8176 64.176 92.571 64.176ZM92.571 61.36C93.143 61.36 93.6563 61.228 94.111 60.964C94.5656 60.7 94.925 60.326 95.189 59.842C95.453 59.3433 95.585 58.7567 95.585 58.082C95.585 57.3927 95.453 56.806 95.189 56.322C94.925 55.838 94.5656 55.464 94.111 55.2C93.6563 54.936 93.143 54.804 92.571 54.804C91.999 54.804 91.4856 54.936 91.031 55.2C90.5763 55.464 90.2096 55.838 89.931 56.322C89.667 56.806 89.535 57.3927 89.535 58.082C89.535 58.7567 89.667 59.3433 89.931 59.842C90.2096 60.326 90.5763 60.7 91.031 60.964C91.4856 61.228 91.999 61.36 92.571 61.36ZM50.7613 91V79.164H54.1713V83.784H59.3193V79.164H62.7513V91H59.3193V86.578H54.1713V91H50.7613ZM71.8227 91.176C70.4734 91.176 69.2854 90.912 68.2587 90.384C67.2467 89.856 66.4621 89.1373 65.9047 88.228C65.3474 87.304 65.0687 86.2553 65.0687 85.082C65.0687 83.894 65.3401 82.8453 65.8827 81.936C66.4401 81.012 67.1954 80.2933 68.1487 79.78C69.1021 79.252 70.1801 78.988 71.3827 78.988C72.5414 78.988 73.5827 79.2373 74.5067 79.736C75.4454 80.22 76.1861 80.924 76.7287 81.848C77.2714 82.7573 77.5427 83.85 77.5427 85.126C77.5427 85.258 77.5354 85.412 77.5207 85.588C77.5061 85.7493 77.4914 85.9033 77.4767 86.05H67.8627V84.048H75.6727L74.3527 84.642C74.3527 84.026 74.2281 83.4907 73.9787 83.036C73.7294 82.5813 73.3847 82.2293 72.9447 81.98C72.5047 81.716 71.9914 81.584 71.4047 81.584C70.8181 81.584 70.2974 81.716 69.8427 81.98C69.4027 82.2293 69.0581 82.5887 68.8087 83.058C68.5594 83.5127 68.4347 84.0553 68.4347 84.686V85.214C68.4347 85.8593 68.5741 86.4313 68.8527 86.93C69.1461 87.414 69.5494 87.788 70.0627 88.052C70.5907 88.3013 71.2067 88.426 71.9107 88.426C72.5414 88.426 73.0914 88.3307 73.5607 88.14C74.0447 87.9493 74.4847 87.6633 74.8807 87.282L76.7067 89.262C76.1641 89.878 75.4821 90.3547 74.6607 90.692C73.8394 91.0147 72.8934 91.176 71.8227 91.176ZM82.2952 91V81.188L83.0652 81.98H78.2912V79.164H89.7092V81.98H84.9352L85.7052 81.188V91H82.2952Z" fill="white"/>
</svg>
